{
  "vertices": [
    {
      "position": [-0.0868241, 0.49240386, 0.0],
      "tex_coords": [0.4131759, 0.00759614]
    },
    {
      "position": [-0.49513406, 0.06958647, 0.0],
      "tex_coords": [0.0048659444, 0.4304]
    },
    {
      "position": [-0.21918549, -0.44939706, 0.0],
      "tex_coords": [0.28081453, 0.949397057]
    },
    {
      "position": [0.35966998, -0.3473291, 0.0],
      "tex_coords": [0.85967, 0.84732911]
    },
    {
      "position": [0.44147372, 0.2347359, 0.0],
      "tex_coords": [0.9414737, 0.2652641]
    }
  ],
  "indices": [0, 1, 4, 1, 2, 4, 2, 3, 4]
}
